Endpoint is : https://reqres.in/api/users

Request Body is : {
"name": "tungesha",
"job": "leader"
}

Response Body is{"name":"tungesha","job":"leader","id":"907","createdAt":"2023-12-13T07:40:09.695Z"}